<svg xmlns="http://www.w3.org/2000/svg" xmlns:xlink="http://www.w3.org/1999/xlink" width="40" height="40" viewBox="0 0 40 40">
    <defs>
        <circle id="a" cx="20" cy="20" r="20"/>
    </defs>
    <g fill="none" fill-rule="evenodd">
        <mask id="b" fill="#ECB1B1">
            <use xlink:href="#a"/>
        </mask>
        <use fill="#D66262" xlink:href="#a"/>
        <path fill="#ECB1B1" d="M20 20.8A6.4 6.4 0 1 1 20 8a6.4 6.4 0 0 1 0 12.8zM16.806 24h6.388a4.8 4.8 0 0 1 4.723 3.941l1.454 8A4.8 4.8 0 0 1 24.65 41.6H15.35a4.8 4.8 0 0 1-4.722-5.659l1.454-8A4.8 4.8 0 0 1 16.806 24z" mask="url(#b)"/>
    </g>
</svg>
